<svg xmlns="http://www.w3.org/2000/svg" width="21.338" height="18" viewBox="0 0 21.338 18">
  <g id="reader" transform="translate(-1 -8.665)">
    <g id="Group_123" data-name="Group 123" transform="translate(1 8.665)">
      <path id="Path_53" data-name="Path 53" d="M21.126,8.665H2.212A1.213,1.213,0,0,0,1,9.877v12.8a1.213,1.213,0,0,0,1.212,1.212H8.788v2.027H6.941a.377.377,0,1,0,0,.754H16.4a.377.377,0,1,0,0-.754H14.55V23.884h6.576a1.213,1.213,0,0,0,1.212-1.212V9.877A1.214,1.214,0,0,0,21.126,8.665ZM13.8,23.884v2.027H9.543V23.884ZM1.755,19.99H21.583v2.682a.458.458,0,0,1-.457.457H2.212a.458.458,0,0,1-.457-.457V19.99ZM2.212,9.42H21.126a.458.458,0,0,1,.457.457v9.358H1.755V9.877A.457.457,0,0,1,2.212,9.42Z" transform="translate(-1 -8.665)" fill="#fff"/>
      <path id="Path_54" data-name="Path 54" d="M47.645,66.184a.656.656,0,1,0-.656-.656A.572.572,0,0,0,47.645,66.184Z" transform="translate(-36.976 -52.634)" fill="#fff"/>
    </g>
  </g>
</svg>
